<svg xmlns="http://www.w3.org/2000/svg" width="650" height="127.539" viewBox="0 0 650 127.539">
  <g id="Group_775" data-name="Group 775" transform="translate(0.026 0)">
    <g id="Group_767" data-name="Group 767" transform="translate(130.582 0)">
      <path id="Path_1115" data-name="Path 1115" d="M119.518,6.7V43.653h15.856c3.585,0,6.342-.827,8-2.62s2.758-5.1,3.447-10.341h2.344v31.85h-2.344a18.918,18.918,0,0,0-1.379-8,8.578,8.578,0,0,0-3.447-3.861,14.115,14.115,0,0,0-6.618-1.241H119.518V78.95c0,4.826.276,7.859.827,9.376A6.356,6.356,0,0,0,123.1,91.36a11.688,11.688,0,0,0,5.929,1.655H132.2v2.62H94.7v-2.62h3.033c3.585,0,6.2-1.1,7.859-3.447.965-1.517,1.517-5.1,1.517-10.617V18.283c0-4.688-.276-7.859-.827-9.376a6.016,6.016,0,0,0-2.62-3.033A11.325,11.325,0,0,0,97.733,4.22H94.7V1.6h66.044l.827,20.682h-2.206A31.478,31.478,0,0,0,155.5,12.63a12.135,12.135,0,0,0-5.515-4.412c-2.206-.965-5.515-1.379-10.065-1.379H119.518Z" transform="translate(-94.7 0.606)" fill="#58595b"/>
      <path id="Path_1116" data-name="Path 1116" d="M186.55,64.666H152.77l-5.929,14.891c-1.517,3.723-2.206,6.342-2.206,8.135a4.774,4.774,0,0,0,1.93,3.723q1.861,1.655,8.273,2.068V96.1H127.4v-2.62c3.585-.689,6.067-1.655,7.032-2.758,2.206-2.206,4.55-6.756,7.308-13.512L172.349,0h2.206l30.334,78.178c2.482,6.342,4.688,10.341,6.618,12.271s4.826,2.9,8.273,3.171v2.62h-34.47V93.62c3.447-.138,5.791-.827,7.032-1.93a4.887,4.887,0,0,0,1.792-3.861c0-2.068-.827-5.239-2.62-9.652Zm-1.792-5.1L170,21.509,154.838,59.564Z" transform="translate(-82.313 0)" fill="#58595b"/>
      <path id="Path_1117" data-name="Path 1117" d="M193.4,95.5v-2.62h3.309c3.723,0,6.342-1.241,7.859-3.861.965-1.517,1.379-4.964,1.379-10.2V18.146c0-5.929-.551-9.514-1.792-11.03-1.655-2.068-4.136-3.033-7.445-3.033H193.4V1.6h35.573c13.1,0,23.026,1.655,29.782,4.826s12.271,8.549,16.408,15.994,6.2,15.994,6.2,25.783c0,13.1-3.723,23.991-11.03,32.815-8.273,9.789-20.958,14.753-37.917,14.753H193.4Zm24.956-6.756a65.434,65.434,0,0,0,13.65,1.93,31.519,31.519,0,0,0,24.818-11.306c6.618-7.583,9.789-17.786,9.789-30.609,0-12.961-3.309-23.164-9.789-30.747-6.618-7.445-15.029-11.168-25.37-11.168a50.15,50.15,0,0,0-13.236,2.068V88.74Z" transform="translate(-57.313 0.606)" fill="#58595b"/>
      <path id="Path_1118" data-name="Path 1118" d="M282.256,6.7V43.515h19.165q7.445,0,9.927-2.482c2.206-2.068,3.447-5.653,3.723-11.03h2.344V62.681h-2.344a31.441,31.441,0,0,0-1.792-8.273,8.707,8.707,0,0,0-3.861-3.861c-1.792-.965-4.412-1.379-8.135-1.379H282.118V79.64c0,4.136.138,6.756.552,7.583a4.039,4.039,0,0,0,1.792,2.206q1.241.827,4.964.827h14.753a39.091,39.091,0,0,0,10.755-1.1,15.564,15.564,0,0,0,6.48-4.412,54.3,54.3,0,0,0,8.135-12.961h2.62l-7.583,23.577H257.3v-2.62h3.033a11.688,11.688,0,0,0,5.929-1.655,5.1,5.1,0,0,0,2.758-3.309c.552-1.517.689-4.55.689-9.1V17.87c0-5.929-.552-9.652-1.655-11.03-1.517-1.792-4.136-2.758-7.721-2.758H257.3V1.6h67.285l.965,20.544h-2.482c-.965-4.964-1.93-8.411-3.033-10.2a11.233,11.233,0,0,0-4.826-4.274c-1.792-.689-4.688-1.1-9.1-1.1H282.256Z" transform="translate(-33.108 0.606)" fill="#58595b"/>
      <path id="Path_1119" data-name="Path 1119" d="M398.326,95.5h-23.3L345.518,51.512c-2.206.138-4,.138-5.377.138h-1.792a9.1,9.1,0,0,1-1.93-.138v27.3c0,5.929.552,9.652,1.792,11.03,1.655,2.068,4.136,3.033,7.308,3.033h3.447V95.5H311.6v-2.62h3.309c3.723,0,6.342-1.241,7.859-3.861.965-1.379,1.379-4.826,1.379-10.2V18.146c0-5.929-.552-9.652-1.792-11.03-1.655-2.068-4.136-3.033-7.445-3.033H311.6V1.6h31.85c9.238,0,16.132.689,20.544,2.206a23.725,23.725,0,0,1,11.168,8,21.944,21.944,0,0,1,4.55,13.926,23.192,23.192,0,0,1-5.239,15.029c-3.447,4.274-8.962,7.308-16.27,8.962l18.062,27.024c4.136,6.2,7.721,10.341,10.617,12.271,2.9,2.068,6.894,3.309,11.582,3.861V95.5ZM336.28,47.238h3.585c8.273,0,14.615-1.93,18.889-5.791A19.1,19.1,0,0,0,365.1,26.556c0-5.929-1.655-10.617-5.1-14.339S352,6.7,346.484,6.7A46.359,46.359,0,0,0,336.418,8.08V47.238Z" transform="translate(-12.539 0.606)" fill="#58595b"/>
      <path id="Path_1120" data-name="Path 1120" d="M439.947,0l2.206,29.644h-2.206c-2.206-7.445-5.239-12.961-8.824-16.683-5.239-5.377-11.858-8.135-19.993-8.135-11.168,0-19.579,4.688-25.37,14.2-4.826,8-7.308,17.511-7.308,28.541a61.856,61.856,0,0,0,4.826,24.543c3.171,7.446,7.445,12.823,12.685,16.27a28.825,28.825,0,0,0,15.994,5.1,30.888,30.888,0,0,0,9.376-1.379,34.862,34.862,0,0,0,8.686-3.861V61.219c0-4.688-.276-8.549-.965-9.927a6.491,6.491,0,0,0-3.033-3.309c-1.379-.827-3.861-1.1-7.308-1.1V44.121h33.643v2.758H450.7c-3.309,0-5.653,1.241-6.894,3.585-.827,1.655-1.241,5.791-1.241,10.755V90.035a63.488,63.488,0,0,1-14.615,6.342,58.343,58.343,0,0,1-15.994,2.068c-16.821,0-29.644-5.791-38.468-17.511-6.618-8.686-9.789-18.752-9.789-30.2a53.531,53.531,0,0,1,5.515-23.853c4.412-8.962,10.341-15.994,18.062-20.82C393.62,2.068,401.2,0,409.89,0a42.242,42.242,0,0,1,8.686.827,68.49,68.49,0,0,1,11.03,3.723,17.19,17.19,0,0,0,4.826,1.517A2.431,2.431,0,0,0,436.5,4.826,9.984,9.984,0,0,0,437.6.138h2.344Z" transform="translate(7.196 0)" fill="#58595b"/>
      <path id="Path_1121" data-name="Path 1121" d="M481.419,0V32.54h-2.344q-1.241-9.307-4.136-14.891a21.915,21.915,0,0,0-8.549-8.824,22.311,22.311,0,0,0-11.444-3.309,15.072,15.072,0,0,0-11.03,4.412A14.042,14.042,0,0,0,439.5,19.993a12.69,12.69,0,0,0,2.758,7.859c2.62,3.447,8.962,8.135,19.027,13.926,8.135,4.688,13.788,8.273,16.683,10.892a25.662,25.662,0,0,1,6.894,8.962,24.568,24.568,0,0,1,2.482,10.755,25.007,25.007,0,0,1-7.721,18.338c-5.1,5.1-11.72,7.721-19.855,7.721a30.148,30.148,0,0,1-7.17-.689q-2.068-.414-8.273-2.482c-4.136-1.517-6.894-2.206-8-2.206a3.029,3.029,0,0,0-2.482,1.1c-.689.689-1.1,2.068-1.379,4.274h-2.344v-32.4h2.344c1.1,6.756,2.62,11.858,4.55,15.167a23.191,23.191,0,0,0,8.686,8.411,25.386,25.386,0,0,0,12.823,3.309c5.377,0,9.652-1.517,12.685-4.55A14.329,14.329,0,0,0,475.9,77.626a14.809,14.809,0,0,0-1.792-7.032,22.053,22.053,0,0,0-5.515-6.618c-1.655-1.379-6.2-4.274-13.65-8.824A153.146,153.146,0,0,1,438.952,44.4a28.511,28.511,0,0,1-7.17-8.824A22.734,22.734,0,0,1,429.3,24.956a23.629,23.629,0,0,1,7.17-17.373C441.3,2.482,447.362,0,454.808,0a34.3,34.3,0,0,1,14.753,3.723c2.344,1.1,4.136,1.792,5.1,1.792a3.85,3.85,0,0,0,2.758-1.1c.689-.689,1.241-2.206,1.655-4.274h2.344Z" transform="translate(32.045 0)" fill="#58595b"/>
    </g>
    <g id="Group_768" data-name="Group 768" transform="translate(-0.026 2.206)">
      <path id="Path_1122" data-name="Path 1122" d="M113.337,1.6H2.206A174.726,174.726,0,0,0,0,28.487,120.439,120.439,0,0,0,.827,42.964h0c0,.414.138.965.138,1.379h0A112.414,112.414,0,0,0,9.652,75.779s.827,1.655.827,1.792h0A105.865,105.865,0,0,0,28.955,105.01h0a3.656,3.656,0,0,1,.689.827h0c14.2,14.891,27.99,21.1,27.99,21.1h0S71.7,120.59,85.761,105.7h0a3.656,3.656,0,0,0,.689-.827h0A110.591,110.591,0,0,0,105.064,77.3h0l.827-1.93h0A110.479,110.479,0,0,0,114.44,44.2h0c0-.414.138-.965.138-1.379h0a120.439,120.439,0,0,0,.827-14.477A157.522,157.522,0,0,0,113.337,1.6" transform="translate(0.036 -1.6)" fill="#fff"/>
      <path id="Path_1123" data-name="Path 1123" d="M2.2,55.511v.138L57.076,1.6H23.02Z" transform="translate(0.869 -1.6)" fill="#c51a1b"/>
      <path id="Path_1124" data-name="Path 1124" d="M101.211,56.2,10.9,65.3c.138.276.276.414.414.689L82.459,84.327A105.161,105.161,0,0,0,101.211,56.2" transform="translate(4.165 19.082)" fill="#c51a1b"/>
      <path id="Path_1125" data-name="Path 1125" d="M6.076,71.991,112.381,42.623A142.879,142.879,0,0,0,111.14,2.5L5.8,71.3a2.329,2.329,0,0,1,.276.689" transform="translate(2.233 -1.259)" fill="#c51a1b"/>
      <path id="Path_1126" data-name="Path 1126" d="M3.6,62.956c0,.138.138.276.138.414L111.56,1.6H58.89Z" transform="translate(1.399 -1.6)" fill="#c51a1b"/>
      <path id="Path_1127" data-name="Path 1127" d="M8.4,67.759c0,.138.138.138.138.276l94.034-3.861A113.413,113.413,0,0,0,111.258,32.6Z" transform="translate(3.218 10.143)" fill="#c51a1b"/>
      <path id="Path_1128" data-name="Path 1128" d="M14,67.7c16.821,24.4,38.468,34.056,38.468,34.056s13.926-6.2,27.99-21.1Z" transform="translate(5.339 23.438)" fill="#c51a1b"/>
      <path id="Path_1129" data-name="Path 1129" d="M23.036,1.6H2.216a141.5,141.5,0,0,0-.552,46.879Z" transform="translate(0.026 -1.6)" fill="#c51a1b"/>
    </g>
    <g id="Group_769" data-name="Group 769" transform="translate(130.582 105.34)">
      <path id="Path_1130" data-name="Path 1130" d="M106.7,91.882a6.252,6.252,0,0,1-2.068,3.861,6.368,6.368,0,0,1-4,1.379,5.824,5.824,0,0,1-4.412-1.792,4.785,4.785,0,0,1-1.379-2.9,24.673,24.673,0,0,1-.138-3.723,24.673,24.673,0,0,1,.138-3.723,7.058,7.058,0,0,1,1.379-2.9,5.824,5.824,0,0,1,4.412-1.792,5.9,5.9,0,0,1,6.067,5.239h-3.309a2.781,2.781,0,0,0-2.758-2.344,2.679,2.679,0,0,0-2.206,1.1c-.414.552-.552,2.068-.552,4.412v2.344a4.11,4.11,0,0,0,.827,2.206,2.806,2.806,0,0,0,2.068.827c1.517,0,2.344-.827,2.758-2.344H106.7Z" transform="translate(-94.7 -74.923)" fill="#58595b"/>
      <path id="Path_1131" data-name="Path 1131" d="M126.255,96.808H115.5V80.4h10.755v2.9h-7.583v3.861h6.48v2.9h-6.48v4h7.583Z" transform="translate(-86.821 -74.885)" fill="#58595b"/>
      <path id="Path_1132" data-name="Path 1132" d="M148.147,96.808h-2.9l-6.48-10.065V96.808H135.6V80.4h2.9l6.48,10.065V80.4h3.171Z" transform="translate(-79.207 -74.885)" fill="#58595b"/>
      <path id="Path_1133" data-name="Path 1133" d="M168.32,83.3h-4.274V96.808h-3.171V83.3H156.6V80.4h11.72Z" transform="translate(-71.253 -74.885)" fill="#58595b"/>
      <path id="Path_1134" data-name="Path 1134" d="M189.409,96.808h-3.723l-3.171-6.48h-2.344v6.48H177V80.4h6.48a5.188,5.188,0,0,1,3.861,1.517A4.677,4.677,0,0,1,188.72,85.5a4.375,4.375,0,0,1-.827,2.758,4.508,4.508,0,0,1-2.068,1.517ZM185.549,85.5a1.975,1.975,0,0,0-.689-1.517,2.2,2.2,0,0,0-1.655-.552h-3.033v4.274H183.2a2.2,2.2,0,0,0,1.655-.552A2.865,2.865,0,0,0,185.549,85.5Z" transform="translate(-63.525 -74.885)" fill="#58595b"/>
      <path id="Path_1135" data-name="Path 1135" d="M209.558,88.711c0,1.792-.138,3.033-.138,3.723a5.676,5.676,0,0,1-1.379,2.9,5.824,5.824,0,0,1-4.412,1.792,5.626,5.626,0,0,1-4.412-1.792,4.785,4.785,0,0,1-1.379-2.9,24.668,24.668,0,0,1-.138-3.723,24.668,24.668,0,0,1,.138-3.723,7.058,7.058,0,0,1,1.379-2.9,6.327,6.327,0,0,1,8.824,0,4.785,4.785,0,0,1,1.379,2.9A24.668,24.668,0,0,1,209.558,88.711Zm-3.171,0V86.367a4.11,4.11,0,0,0-.827-2.206,3,3,0,0,0-4.136,0,3.238,3.238,0,0,0-.689,2.206v4.688a4.16,4.16,0,0,0,.689,2.206,2.806,2.806,0,0,0,2.068.827,2.679,2.679,0,0,0,2.206-1.1C206.111,92.433,206.386,91.055,206.386,88.711Z" transform="translate(-55.684 -74.923)" fill="#58595b"/>
      <path id="Path_1136" data-name="Path 1136" d="M244.433,91.155a5.243,5.243,0,0,1-1.792,4.136,6.348,6.348,0,0,1-8.549,0,5.732,5.732,0,0,1-1.792-4.136V80.4h3.171V91.017a2.911,2.911,0,0,0,.827,2.206,3,3,0,0,0,4.136,0,2.911,2.911,0,0,0,.827-2.206V80.4h3.171Z" transform="translate(-42.578 -74.885)" fill="#58595b"/>
      <path id="Path_1137" data-name="Path 1137" d="M266.247,96.808h-2.9l-6.48-10.065V96.808H253.7V80.4h2.9l6.48,10.065V80.4h3.171Z" transform="translate(-34.472 -74.885)" fill="#58595b"/>
      <path id="Path_1138" data-name="Path 1138" d="M278.771,96.808H275.6V80.4h3.171Z" transform="translate(-26.176 -74.885)" fill="#58595b"/>
      <path id="Path_1139" data-name="Path 1139" d="M302.6,80.4l-5.377,16.408h-2.344L289.5,80.4h3.309l3.309,10.617L299.427,80.4Z" transform="translate(-20.911 -74.885)" fill="#58595b"/>
      <path id="Path_1140" data-name="Path 1140" d="M321.255,96.808H310.5V80.4h10.755v2.9h-7.583v3.861h6.48v2.9h-6.48v4h7.583Z" transform="translate(-12.956 -74.885)" fill="#58595b"/>
      <path id="Path_1141" data-name="Path 1141" d="M343.009,96.808h-3.723l-3.171-6.48h-2.344v6.48H330.6V80.4h6.48a5.188,5.188,0,0,1,3.861,1.517A4.677,4.677,0,0,1,342.32,85.5a3.756,3.756,0,0,1-.965,2.758,4.508,4.508,0,0,1-2.068,1.517ZM339.148,85.5a1.975,1.975,0,0,0-.689-1.517,2.2,2.2,0,0,0-1.655-.552h-3.033v4.274H336.8a2.2,2.2,0,0,0,1.655-.552A2.864,2.864,0,0,0,339.148,85.5Z" transform="translate(-5.342 -74.885)" fill="#58595b"/>
      <path id="Path_1142" data-name="Path 1142" d="M362.5,92.02a4.265,4.265,0,0,1-1.655,3.585,7.313,7.313,0,0,1-4.412,1.379c-2.62,0-4.55-.689-5.929-2.206l2.068-2.068a5.234,5.234,0,0,0,4,1.379q2.9,0,2.9-2.068a2.059,2.059,0,0,0-.414-1.379,2.2,2.2,0,0,0-1.517-.552l-1.93-.276c-2.9-.414-4.412-1.93-4.412-4.55a4.57,4.57,0,0,1,1.517-3.585,5.784,5.784,0,0,1,4.136-1.379,7.192,7.192,0,0,1,5.239,1.93L360.014,84.3a5.031,5.031,0,0,0-3.309-1.1,2.918,2.918,0,0,0-1.93.552,1.975,1.975,0,0,0-.689,1.517,1.684,1.684,0,0,0,.552,1.241,3.877,3.877,0,0,0,1.517.689l1.93.276a6.125,6.125,0,0,1,3.171,1.241A4.071,4.071,0,0,1,362.5,92.02Z" transform="translate(2.196 -74.923)" fill="#58595b"/>
      <path id="Path_1143" data-name="Path 1143" d="M374.571,96.808H371.4V80.4h3.171Z" transform="translate(10.113 -74.885)" fill="#58595b"/>
      <path id="Path_1144" data-name="Path 1144" d="M397.32,83.3h-4.274V96.808h-3.171V83.3H385.6V80.4h11.72Z" transform="translate(15.492 -74.885)" fill="#58595b"/>
      <path id="Path_1145" data-name="Path 1145" d="M419.139,98.323H415.83l-.965-2.9h-5.791l-.965,2.9H404.8l5.929-16.408h2.482Zm-5.1-5.515-2.068-5.929L409.9,92.808ZM415.279,76.4l-2.62,3.861h-2.068l1.517-3.861Z" transform="translate(22.764 -76.4)" fill="#58595b"/>
      <path id="Path_1146" data-name="Path 1146" d="M439.109,96.808h-3.723l-3.171-6.48h-2.344v6.48H426.7V80.4h6.48a5.188,5.188,0,0,1,3.861,1.517A4.677,4.677,0,0,1,438.42,85.5a4.375,4.375,0,0,1-.827,2.758,4.508,4.508,0,0,1-2.068,1.517ZM435.249,85.5a1.975,1.975,0,0,0-.689-1.517,2.2,2.2,0,0,0-1.655-.552h-3.033v4.274H432.9a2.2,2.2,0,0,0,1.655-.552A2.865,2.865,0,0,0,435.249,85.5Z" transform="translate(31.06 -74.885)" fill="#58595b"/>
      <path id="Path_1147" data-name="Path 1147" d="M450.771,96.808H447.6V80.4h3.171Z" transform="translate(38.977 -74.885)" fill="#58595b"/>
      <path id="Path_1148" data-name="Path 1148" d="M474.4,88.711a12.487,12.487,0,0,1-.276,3.723,5.676,5.676,0,0,1-1.379,2.9,5.824,5.824,0,0,1-4.412,1.792,5.626,5.626,0,0,1-4.412-1.792,4.785,4.785,0,0,1-1.379-2.9,24.673,24.673,0,0,1-.138-3.723,24.673,24.673,0,0,1,.138-3.723,7.058,7.058,0,0,1,1.379-2.9,6.327,6.327,0,0,1,8.824,0,4.785,4.785,0,0,1,1.379,2.9A12.487,12.487,0,0,1,474.4,88.711Zm-3.171,0V86.367a3.253,3.253,0,0,0-.827-2.206,3,3,0,0,0-4.136,0,3.238,3.238,0,0,0-.689,2.206v4.688a4.16,4.16,0,0,0,.689,2.206,2.806,2.806,0,0,0,2.068.827,2.679,2.679,0,0,0,2.206-1.1C470.949,92.433,471.224,91.055,471.224,88.711Z" transform="translate(44.583 -74.923)" fill="#58595b"/>
    </g>
  </g>
</svg>
