<svg xmlns="http://www.w3.org/2000/svg" width="650" height="114.47" viewBox="0 0 650 114.47">
  <g id="LogoUniNorte" transform="translate(0 0)">
    <path id="Path_522" data-name="Path 522" d="M913.9,27.518h18.336l.114.013h.108l.027.013.047.013.014.013.034.013h.04l.014.027.047.013.034.02.02.027.02.02.034.027.02.02.054.034.013.02v.034l.04.034.007.027.047.034v.054l.034.02v.087l.013.027v.034l.013.047v7.8l-.013.027v.04l-.013.04v.074l-.034.027v.061l-.047.027-.007.04-.04.02v.027l-.013.034-.054.034-.02.02-.034.027-.02.02-.034.027-.02.02-.047.013-.014.02-.027.013-.047.007-.014.013-.047.013h-.027l-.034.013h-.047l-.027.007-.114.007H913.9V56.273h20.549l.04.02h.074l.013.02h.027l.04.013.034.007.04.034.013.007.04.02.027.034.027.02.034.013.02.034.02.02.047.034.014.034.02.027.02.013.013.034.02.027v.04l.02.034V56.8l.027.034v8.536l-.027.027v.061l-.02.027v.034l-.02.02-.034.04-.02.02v.034l-.014.027-.047.007-.02.047-.02.027-.034.013-.027.027-.027.04-.04.013-.013.007-.04.027h-.034l-.04.02-.027.007h-.013l-.047.027h-.027l-.04.007h-.04l-.1.013h-39.4l-.121-.013h-.041l-.034-.007h-.034l-.02-.027h-.047l-.027-.007-.027-.02h-.034l-.041-.027-.027-.007-.02-.013-.02-.04-.04-.027-.034-.013-.013-.027-.047-.047-.007-.007-.04-.027-.007-.034-.027-.02-.02-.04-.013-.02-.013-.034-.013-.027v-.087l-.02-.027-.007-.04V.9l.007-.007V.874l.02-.02V.773l.027-.02.013-.034.02-.02.02-.02.007-.02.027-.02.027-.027.02-.027.027-.027.027-.02.027-.027L894.423.5l.034-.013.033-.02h.014l.047-.027.034-.007h.02l.04-.027h.108l.114-.013h38.986l.108.013h.121L934.1.43h.04l.047.007.007.027h.047l.014.02L934.3.5l.02.013.034.027.027.02.034.027V.612l.04.027.013.013.027.027.027.02.007.02.007.034.013.02.02.013V.814l.007.007V.874l.007.02.02.034V9.545l-.02.02-.007.02v.04l-.007.013v.027l-.02.027-.013.007-.007.047-.007.013-.027.034-.02.02-.02.02-.04.034v.013l-.034.02-.027.027-.034.013-.02.013-.047.02-.014.013-.047.034-.027.007h-.027l-.04.013-.014.007-.047.013h-.074l-.108.013H913.9l.027,3.128" transform="translate(-292.698 -0.128)" fill="#2c4c79" fill-rule="evenodd"/>
    <path id="Path_523" data-name="Path 523" d="M843.129,26.2V65.226l-.013.04v.061l-.04.04V65.4l-.013.04-.02.02v.027l-.02.04-.007.034-.04.02-.027.04-.007.027-.041.013-.013.04-.027.034h-.047l-.02.034-.034.013-.02.034-.027.007-.027.007-.014.007h-.04l-.034.027h-.007l-.034.007H823.832l-.027-.007h-.034l-.007-.027h-.027l-.027-.007-.054-.013h-.007l-.02-.034-.061-.013-.007-.034h-.04l-.034-.027-.013-.047-.034-.013-.013-.027-.02-.04-.02-.02-.027-.034-.027-.04-.013-.02-.014-.027-.013-.04-.007-.034v-.04l-.02-.027V10.049H808.643l-.107-.013h-.061l-.047-.013h-.034l-.013-.007h-.04l-.04-.04-.027-.007-.02-.02-.04-.013-.027-.013-.027-.02-.027-.02-.02-.02-.034-.034-.027-.02-.014-.02L808,9.767l-.014-.027-.007-.027-.013-.027-.013-.013-.02-.04V9.619l-.007-.007V9.525l-.02-.02V.922l.02-.034V.814L807.937.8V.767l.034-.02.007-.027.007-.027.007-.013L808,.653l.034-.013.014-.034.027-.02.034-.027.02-.013.027-.02.013-.034.04-.007.04-.027.02-.027h.027l.04-.007.02-.02h.034l.04-.007.04-.013h.074l.094-.013h48.235l.128.013h.061L857.1.4l.047.007h.034l.027.02.027.007.027.027h.04l.034.027.04.007.02.034.007.02.04.013.007.027.027.02.027.027.027.02.02.027.007.013.027.027V.753l.007.013V.78l.027.027v8.8l-.027.007v.013l-.007.04-.007.013-.02.027-.007.027-.02.027-.027.02-.027.02-.027.02-.007.034-.04.013L857.4,9.9l-.027.02-.034.013-.034.013-.04.02-.027.007-.027.04h-.034l-.027.007H857.1l-.034.013h-.061l-.1.013H843.116Z" transform="translate(-264.477 -0.121)" fill="#2c4c79" fill-rule="evenodd"/>
    <path id="Path_524" data-name="Path 524" d="M971.741,364.132v-.424l-.047-.067-.074-.108-.054-.114-.054-.087-.094-.087-.1-.135-.182-.215-.235-.289-.3-.4-.343-.531-.343-.673-.309-.726-.215-.747-.155-.733-.108-.706-.04-.673V343.63l-.081-.3-.054-.289-.094-.269-.108-.242-.081-.222-.074-.229-.074-.188-.087-.168-.074-.161-.081-.135-.067-.128-.094-.128-.054-.114-.087-.1-.054-.087-.074-.094-.074-.067-.067-.074-.054-.081-.081-.081-.074-.067-.074-.067-.087-.087-.1-.061-.087-.074-.094-.081-.114-.087-.128-.094-.134-.074-5.892-3.868,4.937-5.1.121-.135.121-.121.114-.121.128-.148.121-.148.088-.121.128-.148.108-.141.114-.148.1-.135.081-.148.108-.155.108-.135.1-.155.094-.148.094-.148.088-.175.094-.141.074-.168.094-.148.1-.161.061-.175.1-.161.054-.168.094-.175.067-.161.081-.182.054-.2.1-.175.061-.175.054-.148.094-.316.1-.323.128-.4.074-.431.087-.478.094-.518.088-.558.067-.585.074-.612.067-.619.041-.673.061-.673.034-.673v-4.076l-.034-.673-.061-.673-.041-.673-.067-.612-.074-.6-.081-.578-.074-.538-.114-.511-.087-.464-.094-.424-.1-.37-.108-.3-.074-.256-.182-.383-.168-.37-.188-.35-.188-.343-.229-.336-.222-.323-.276-.31-.262-.323-.289-.3-.3-.289-.35-.3-.35-.283-.377-.289-.39-.283-.424-.262-.457-.276-.491-.269-.478-.242-.538-.262-.531-.235-.592-.235-.605-.215-.626-.215-.673-.2-.673-.2-.673-.188-.74-.182-.74-.155-.767-.155-.8-.135-.821-.135-.854-.135-.229-.034h-.262l-.249-.034h-.531l-.249-.04h-.249l-.256-.034H951.1l-.269-.034h-37.2l-.04.04h-.033l-.041.034h0v.047h0v.04h0v.074h0v64.614h0v.034h0v.047h0l.047.047h.074v.04H932.66l.047-.04h.034v-.047h0v-.047h0v-.034h0v-.114h0v-.054h0V332.915l16.143,13.3.35,13.3v1.184l.054.155v.168l.067.161.034.168.074.155.061.141.047.162.088.148.081.148.074.161.074.141.094.135.1.141.094.148.1.135.114.148.128.135.1.148.134.141.121.148.141.121.148.134.161.135.128.141.155.135.141.121.242.168.182.155.182.121.175.094.128.087.148.081.1.047.1.034.081.04.081.04h17.7l.047-.04h0l.141-.094.088-.074.108-.054.061-.061.054-.054.061-.047.04-.054V364.8l.047-.034v-.047h0v-.276h0v-.1Zm-22.325-43.594h0c-.155,6.309-6.054,6.377-10.762,6.424l-5.59.054v-21.39l5.758.04c4.81.067,10.843.121,10.762,6.78Z" transform="translate(-433.668 -299.592)" fill="#2c4c79" fill-rule="evenodd"/>
    <path id="Path_525" data-name="Path 525" d="M413.029.29h12.7l.108.007.027.013h.1l.007.027h.04l.047.007.013.013.027.013.04.007.04.027.013.027.013.027.04.02.04.027.013.027.04.027.007.034.02.027.014.034.034.027.013.034.013.034.034.034V.815l.007.034.007.047v.02l.013.034V65.3l-.013.04v.027l-.007.047-.007.02v.027l-.034.04-.013.047-.013.02-.034.027-.014.034-.02.034-.007.02-.04.034-.013.027-.04.034-.04.02-.013.034-.013.007-.04.027-.04.02-.027.007-.013.02-.047.007-.04.007-.007.007-.047.007v.013H406.975l-.222-.02h-.229l-.215-.013h-.215l-.2-.007-.188-.02-.2-.027-.188-.02-.168-.007-.168-.027-.208-.02-.141-.04-.148-.027-.155-.013-.148-.027-.128-.054-.135-.034-.128-.027-.121-.034-.121-.047-.1-.034-.121-.04-.1-.04-.087-.04-.141-.087-.135-.067-.114-.074-.114-.067-.108-.087-.108-.081-.128-.094-.114-.114-.121-.114-.121-.135-.141-.155-.128-.168-.128-.188-.141-.2-.135-.242-.2-.269-23.6-40.446V65.368l-.027.047-.013.02v.027l-.013.04-.013.047-.02.02-.027.027-.02.034-.02.034-.007.02-.034.034-.02.027-.027.034-.034.02-.027.034-.027.007-.047.027-.02.02-.034.007-.034.02-.034.007-.027.007-.02.007-.007.007-.04.013H363.832l-.04-.013-.04-.007-.027-.007-.014-.007-.034-.007-.034-.02-.04-.007-.02-.02-.02-.027-.04-.007L363.5,65.8l-.027-.02-.04-.034-.007-.027-.034-.034-.02-.02-.013-.034-.034-.034-.027-.034-.007-.027V65.5l-.02-.04-.02-.027-.02-.02v-.074l-.007-.04V.949l.007-.034V.848l.02-.034.02-.034.02-.034V.714l.007-.034.027-.027.034-.034.013-.027.04-.034.013-.027.007-.027.04-.027.027-.02.027-.027h.04l.02-.054.034-.007.034-.013.027-.013.034-.007h.014l.027-.027h.087l.04-.013.108-.007h17.879l.256.007h.256l.235.013h.457l.222.007.235.02.188.007.222.013h.182l.2.02.188.02.2.034.182.02.148.013L385.2.5l.155.02.148.02.155.04.135.027.128.04.128.02.121.054.114.034.128.04.1.047.094.054.087.027.148.081.128.061.1.074.128.074.121.074.094.094.121.094.121.108.114.114.141.141.108.155.141.168.135.2.148.188.141.235.161.276,23.509,40.264V.9l.027-.047L412.3.815V.781l.034-.034V.714l.007-.034.04-.027.007-.034.034-.027.013-.034.02-.027.034-.027.034-.027.027-.02.027-.027h.034l.027-.054.027-.007.054-.013.007-.013.027-.007h.02l.047-.027h.067l.04-.013Z" transform="translate(-118.903 -0.095)" fill="#2c4c79" fill-rule="evenodd"/>
    <path id="Path_526" data-name="Path 526" d="M560.406.29H573.1l.094.007.047.013h.094l.013.027h.04l.034.007.027.013.027.013.027.007.04.027.027.027.007.027.04.02.034.027.02.027.033.027.027.034.013.027.02.034.027.027V.714l.014.034.034.034.014.034v.1l.013.034V65.3l-.013.04v.094l-.014.027-.034.04-.014.047v.02l-.027.027-.02.034-.013.034-.027.02-.033.034-.02.027-.034.034-.04.02-.007.034-.027.007-.04.027-.027.02-.027.007-.027.02-.034.007-.04.007-.013.007-.04.007-.02.013H554.352l-.222-.02H553.9l-.208-.013h-.235l-.2-.007-.188-.02-.2-.027-.2-.02-.181-.007-.168-.027-.175-.02-.168-.04-.148-.027-.155-.013-.135-.027-.141-.054-.141-.034-.121-.027-.114-.034-.128-.047-.1-.034-.121-.04-.108-.04-.061-.04-.161-.087-.114-.067-.121-.074L550,65.038l-.108-.087-.1-.081-.135-.094-.108-.114-.114-.114-.128-.135-.141-.155-.121-.168-.134-.188-.141-.2-.141-.242-.175-.269L524.837,22.749v42.4l-.007.114v.108l-.027.047-.007.02V65.5l-.047.047v.02l-.027.027-.02.034-.02.034-.013.02-.027.034-.034.027-.027.034-.034.02-.027.034-.027.007-.027.027-.027.02-.04.007-.027.02-.027.007-.027.007-.027.007-.027.007-.027.013H511.189l-.034-.013-.04-.007-.027-.007V65.92l-.027-.007-.04-.02-.04-.007-.034-.02-.02-.027-.034-.007-.034-.034-.013-.02-.04-.034-.013-.027-.027-.034-.034-.02-.013-.034-.027-.034-.027-.034v-.027l-.04-.034v-.04l-.02-.027-.013-.02V.848L510.6.815l.02-.034V.747l.04-.034V.68l.027-.027.027-.034.013-.027.04-.034.02-.027.013-.027.04-.027.013-.02.034-.027h.034l.02-.054.034-.007.04-.013.04-.013.027-.007h0l.027-.027h.1L511.249.3l.108-.007h17.885l.242.007h.262l.242.013h.444l.222.007.236.02.215.007.208.013h.182l.188.02.2.02.188.034.175.02.161.013.175.034.155.02.148.02.141.04.134.027.141.04.114.02.141.054.1.034.128.04.1.047.087.054.1.027.141.081.134.061.108.074.121.074.1.074.115.094.114.094.108.108.121.114.148.141.114.155.134.168.141.2.141.188.141.235.168.276,23.5,40.264V.949l.014-.034V.9l.02-.047.007-.034V.781l.027-.034.02-.034L559.72.68l.02-.027.027-.034.02-.027.007-.034.034-.027.027-.027.027-.027.013-.02.04-.027h.034l.02-.054.04-.007.04-.013.013-.013.04-.007h.027l.02-.027h.087L560.291.3Z" transform="translate(-167.146 -0.095)" fill="#2c4c79" fill-rule="evenodd"/>
    <path id="Path_527" data-name="Path 527" d="M936.8,446.793c0-.437-.316-.673-.814-.673h-.673v2.348h.37V447.5h.235l.673,1,.424-.094-.673-.955a.672.672,0,0,0,.471-.673m-.854.383h-.282v-.673H936c.242,0,.4.121.4.343s-.175.356-.444.356m.054-1.951a2.018,2.018,0,0,0-2.065,2.126,1.978,1.978,0,0,0,2.018,2.139,2.132,2.132,0,0,0,0-4.265m0,4.036a1.883,1.883,0,1,1,1.783-1.883,1.722,1.722,0,0,1-1.783,1.883m-7.581,3.215c-2.785-1.143-3.942-2.018-3.942-3.625s1.453-2.791,3.619-2.791a7.109,7.109,0,0,1,3.733.942l.2-1.137a8.629,8.629,0,0,0-3.847-.794c-2.731,0-4.944,1.655-4.944,3.854s1.278,3.161,4.655,4.614c2.973,1.265,3.921,2.1,3.921,3.7,0,1.836-1.7,3.168-4.1,3.168a9.257,9.257,0,0,1-4.44-1.1l-.2,1.15a10.836,10.836,0,0,0,4.52.948c3.168,0,5.469-1.756,5.469-4.312,0-2.186-1.453-3.276-4.648-4.614m-15.686.861h6.37l-.188-1H912.7v-6.094h7.736v-1h-8.993v15.948h9.255v-.989h-8Zm-6.881,7.863h1.244V445.226h-1.244Zm-15.639-15.948v1h5.892v14.953h1.258V446.222h5.8l-.168-1Zm-3.5,15.948h1.278V445.226h-1.278Zm-8.233-8.744c-2.792-1.143-3.942-2.018-3.942-3.626s1.446-2.792,3.632-2.792a6.982,6.982,0,0,1,3.7.942l.215-1.137a8.644,8.644,0,0,0-3.854-.794c-2.731,0-4.937,1.655-4.937,3.854s1.271,3.161,4.655,4.614c2.96,1.265,3.915,2.1,3.915,3.7,0,1.836-1.688,3.168-4.09,3.168a9.216,9.216,0,0,1-4.44-1.1l-.208,1.15a10.9,10.9,0,0,0,4.534.948c3.161,0,5.455-1.756,5.455-4.312,0-2.186-1.46-3.276-4.635-4.614m-8.785-3.034c0-2.516-2.287-4.191-5.5-4.191h-4.359v15.948h1.3v-7.48h2.536l6.215,7.628,1.345-.256-6.1-7.473c2.691-.39,4.628-1.91,4.628-4.2m-8.623,3.336v-6.525h2.993c2.738,0,4.365,1.164,4.365,3.222,0,2.173-1.8,3.3-4.628,3.3Zm-12.034.565h6.35l-.161-1h-6.188v-6.094h7.729v-1H847.8v15.948h9.256v-.989h-8Zm-11.65,6.282-6.377-14.522-1.285.242,7.13,15.955h.948l7.191-16.042h-1.3Zm-11.293,1.581h1.244V445.226h-1.244Zm-5.643-2.348-10.816-13.6h-1.123v15.948h1.224v-14l11.152,14h.8V445.226H820.47Zm-17.489-.8a8.947,8.947,0,0,1-5.67,2.354c-3.02,0-4.709-1.426-4.709-4.379V445.24h-1.265v10.836c0,3.686,2.347,5.314,5.939,5.314a9.565,9.565,0,0,0,5.785-2.193l.35,2.018h.848V445.226h-1.285Zm-29.529,2.159V445.226H772.2v15.948h8.664l-.155-.989Zm-12.915-15.04-7.231,16.029h1.345l2.4-5.442h8.072l2.489,5.617,1.3-.256-7.238-15.948Zm-3.067,9.585,3.592-8.105,3.605,8.105Zm-8.711,4.1-10.823-13.6h-1.1v15.948h1.191V447.163l11.179,14.011h.76V445.226H748.76Zm-22.87-13.9c-4.641,0-7.984,3.451-7.984,8.3s3.363,8.24,7.937,8.24,7.991-3.444,7.991-8.294-3.363-8.247-7.944-8.247m0,15.558c-4.036,0-6.726-2.96-6.726-7.285s2.691-7.291,6.726-7.291,6.727,2.96,6.727,7.291-2.65,7.285-6.727,7.285m-12.78.673h1.271V445.226H713.11Zm-16.143-15.948v1h5.872v14.953h1.251V446.222h5.818l-.155-1Zm-6.82-.081-7.305,16.043h1.345l2.415-5.442h8.072l2.489,5.617,1.285-.256-7.211-15.948Zm-3.094,9.585,3.619-8.105,3.585,8.105Zm-7.648,4.1-10.823-13.6h-1.13v15.948h1.2v-14l11.173,14.011h.787V445.226H679.4ZM663.462,449.4c0-2.516-2.287-4.191-5.509-4.191H653.6v15.948h1.244v-7.439h2.543l6.215,7.628,1.292-.256-6.054-7.473c2.691-.39,4.648-1.91,4.648-4.2m-8.617,3.33v-6.525h3.007c2.731,0,4.332,1.164,4.332,3.222,0,2.173-1.769,3.3-4.608,3.3Zm-12.578.565h6.363l-.161-1h-6.2v-6.094h7.756v-1h-9.061v15.948h9.255v-.989h-8.018Zm-16.816-8.072v1h5.865v14.953h1.271v-14.96h5.818l-.175-1Zm-3.363,13.6-10.836-13.6h-1.117v15.948h1.211V447.163l11.166,14.011h.78V445.226h-1.2Zm-18.107,2.348h1.251V445.226h-1.251Zm-21.625-6.915h5.731l-.518-2.886h-5.213V447.8H589.3v-2.825H578.279v16.3h11.24v-2.8h-7.177Zm-21.444-9.3v2.919h5.724v13.379h4.123V447.91h6.054l-.545-2.939Zm-8.415-.061-7.184,16.359h4.036l1.608-3.922h7.056l1.688,4.09,4.069-.632-7.029-15.895Zm-.464,9.706,2.435-5.892,2.422,5.892Zm-14.3-.377h5.731l-.531-2.886h-5.2v-3.585h6.9v-2.8H533.689v16.3h11.26v-2.8h-7.19Zm-6.935-4.345c0-3.2-2.489-4.9-6.726-4.9h-6.141v16.3h4.036V455.06h1.218l4.762,6.37,4.177-.632-4.957-6.41c2.3-.706,3.639-2.166,3.639-4.487m-7.224,2.724h-1.682v-4.964h1.749c2.146,0,3.249.861,3.249,2.475s-1.191,2.482-3.316,2.482m-13.271,4.2a7.1,7.1,0,0,1-4.419,1.675c-2.018,0-2.953-.969-2.953-2.933V444.971h-4.11V456c0,3.854,2.247,5.455,6.054,5.455a10.508,10.508,0,0,0,5.812-1.8l.289,1.621h3.457v-16.3h-4.144ZM487.345,444.93l-7.177,16.359H484.2l1.6-3.922h7.056l1.668,4.09,4.076-.632-7.016-15.895Zm-.424,9.706,2.4-5.892,2.415,5.892Zm-14,3.652V444.971h-4.1v16.3h10.594l-.545-3Z" transform="translate(-288.095 -347)" fill="#424243" fill-rule="evenodd"/>
    <path id="Path_528" data-name="Path 528" d="M687.395,365.28H671.588a2.018,2.018,0,0,1-2.018-2.052v-61.52a2.018,2.018,0,0,1,2.018-2.058h15.807a2.018,2.018,0,0,1,2.018,2.058v61.52a2.018,2.018,0,0,1-2.018,2.052" transform="translate(-353.812 -299.448)" fill="#2c4c79"/>
    <path id="Path_529" data-name="Path 529" d="M867.005,302.3q-6.8-2.825-22.137-2.818c-10.2,0-17.61.935-22.137,2.818q-6.242,2.744-6.242,9.417v41.347a9.314,9.314,0,0,0,2.865,7.238c1.931,1.769,4.944,3.007,9.108,3.78a89.71,89.71,0,0,0,16.937,1.345q19.507,0,25.036-5.1a9.4,9.4,0,0,0,2.812-7.238V311.742a9.527,9.527,0,0,0-6.242-9.417m-14.381,52.54a4.089,4.089,0,0,1-2.28,3.686,11.489,11.489,0,0,1-10.89,0,4.069,4.069,0,0,1-2.348-3.686v-44.8a4.09,4.09,0,0,1,2.347-3.693,10.467,10.467,0,0,1,5.381-1.345,10.763,10.763,0,0,1,5.475,1.345,4.123,4.123,0,0,1,2.28,3.693Z" transform="translate(-401.908 -299.393)" fill="#2c4c79"/>
    <path id="Path_530" data-name="Path 530" d="M506.427,299.65a2.018,2.018,0,0,0-2.018,2.058v53.139a4.07,4.07,0,0,1-2.341,3.652,10.943,10.943,0,0,1-5.543,1.345A11.131,11.131,0,0,1,491,358.5a4.062,4.062,0,0,1-2.368-3.652V301.708a2.018,2.018,0,0,0-2.018-2.058h-15.78a2.018,2.018,0,0,0-2.018,2.058v48.154a16.171,16.171,0,0,0,1.762,8.166q2.818,5,11.812,6.592a102.789,102.789,0,0,0,14.125.673,104.789,104.789,0,0,0,14.092-.673q9.06-1.514,11.9-6.491a16.932,16.932,0,0,0,1.756-8.267V301.708a2.018,2.018,0,0,0-2.018-2.058Z" transform="translate(-288.095 -299.448)" fill="#2c4c79"/>
    <rect id="Rectangle_281" data-name="Rectangle 281" width="2.596" height="114.046" transform="translate(138.456 0.202)" fill="#424243"/>
    <path id="Path_531" data-name="Path 531" d="M293.315,399.736c1.856-3.283,2.8-7.668,2.8-13.1v-76.3a3.229,3.229,0,0,0-3.209-3.249H267.762a3.235,3.235,0,0,0-3.2,3.249v84.195c0,2.435-1.244,4.365-3.706,5.771a19.466,19.466,0,0,1-17.61,0c-2.516-1.406-3.787-3.363-3.787-5.771V310.329a3.222,3.222,0,0,0-3.2-3.249h-25.15a3.242,3.242,0,0,0-3.215,3.249v76.3c0,5.435.948,9.773,2.812,12.942,2.98,5.253,9.316,8.744,18.834,10.446,4.708.753,12.047,1.117,22.406,1.117,10.574,0,17.919-.363,22.446-1.117,9.6-1.587,15.948-5.065,18.942-10.285" transform="translate(-202.677 -301.881)" fill="#d25b2c"/>
    <path id="Path_532" data-name="Path 532" d="M290.368,299.35H265.225A8.442,8.442,0,0,0,256.8,307.8v84.194c0,.3,0,.673-1.083,1.265a14.24,14.24,0,0,1-12.464,0c-1.1-.626-1.1-.975-1.1-1.244V307.8a8.462,8.462,0,0,0-8.442-8.448h-25.15a8.448,8.448,0,0,0-8.428,8.448v76.3c0,6.437,1.157,11.529,3.5,15.545,3.794,6.625,11.321,10.991,22.412,12.962h.074c5,.821,12.625,1.2,23.26,1.2,10.87,0,18.491-.383,23.314-1.2,11.206-1.857,18.834-6.175,22.614-12.848,2.307-4.036,3.478-9.329,3.478-15.659V307.8a8.448,8.448,0,0,0-8.428-8.448m5.818,84.753c0,5.879-1.056,10.708-3.128,14.388-3.363,5.939-10.392,9.827-20.791,11.549-4.708.794-12.148,1.164-22.87,1.164-10.513,0-17.98-.37-22.87-1.164-10.338-1.823-17.28-5.765-20.664-11.691C203.792,394.8,202.73,390,202.73,384.1V307.8a5.832,5.832,0,0,1,5.812-5.845h25.15A5.839,5.839,0,0,1,239.5,307.8v84.194c0,1,.283,2.3,2.455,3.5a16.816,16.816,0,0,0,15.04,0c2.119-1.211,2.381-2.516,2.381-3.525V307.8a5.845,5.845,0,0,1,5.818-5.845h25.143a5.832,5.832,0,0,1,5.818,5.845Z" transform="translate(-200.14 -299.35)" fill="#d25b2c"/>
  </g>
</svg>
